{
  "name": "addlanguages",
  "title": "Add Languages",
  "description": "Allows the user to add custom languages to the D&D 5E system in Foundry VTT.",
  "version": "0.0.2",
  "author": "Nicholas D Lambert Sr. [@nickela#9179] with thanks to KaKaRaTo [@KaKaRoTo#4756] for programming help.",
  "systems": ["dnd5e"],
  "scripts": ["./scripts/addlanguages.js"],
  "styles": [],
  "packs": [],
  "minimumCoreVersion": "0.4.0",
  "url": "https://gitlab.com/foundryvttndl/addlanguages",
  "manifest": "https://gitlab.com/foundryvttndl/addlanguages/raw/master/module.json",
  "download": "https://gitlab.com/foundryvttndl/addlanguages/-/archive/master/addlanguages.zip"
}
